lab3/lab3.sim/sim_1/behav/xsim/simulate.log
Vivado Simulator 2018.3
Time resolution is 1 ps
WARNING: This core is supplied with a behavioral model. To model cycle-accurate behavior you must run timing simulation.
WARNING: This core is supplied with a behavioral model. To model cycle-accurate behavior you must run timing simulation.
Time: 0 | clk: 0| PC/4: 00000000 | instr: 000000b3 | Op:33 | rs1:00 | rs2:00 | rd:01 | Funct3:000 | Funct7:0000000 |A:00000000 | B:00000000 | ALUout:00000000 | addr:00 | din:00000000 | dout:00000000 |
Time: 0 | clk:0 | RegWrite:1 | ALUop:00011 | ALUsrc:0 | DMType:000 | MemWrite:0 | WDSel:00 | DM1:00 | DM[addr]:00 | DM[addr+1]:00 | DM[addr+2]:00 | DM[addr+3]  0
Time: 5000 | clk: 1| PC/4: 00000001 | instr: 00108093 | Op:13 | rs1:01 | rs2:01 | rd:01 | Funct3:000 | Funct7:0000000 |A:00000000 | B:00000001 | ALUout:00000001 | addr:01 | din:00000000 | dout:00000000 |
Time: 5000 | clk:1 | RegWrite:1 | ALUop:00011 | ALUsrc:1 | DMType:000 | MemWrite:0 | WDSel:00 | DM1:00 | DM[addr]:00 | DM[addr+1]:00 | DM[addr+2]:00 | DM[addr+3]  0
Time: 10000 | clk: 0| PC/4: 00000001 | instr: 00108093 | Op:13 | rs1:01 | rs2:01 | rd:01 | Funct3:000 | Funct7:0000000 |A:00000000 | B:00000001 | ALUout:00000001 | addr:01 | din:00000000 | dout:00000000 |
Time: 10000 | clk:0 | RegWrite:1 | ALUop:00011 | ALUsrc:1 | DMType:000 | MemWrite:0 | WDSel:00 | DM1:00 | DM[addr]:00 | DM[addr+1]:00 | DM[addr+2]:00 | DM[addr+3]  0
Time: 15000 | clk: 1| PC/4: 00000002 | instr: 00000133 | Op:33 | rs1:00 | rs2:00 | rd:02 | Funct3:000 | Funct7:0000000 |A:00000000 | B:00000000 | ALUout:00000000 | addr:00 | din:00000000 | dout:00000000 |
Time: 15000 | clk:1 | RegWrite:1 | ALUop:00011 | ALUsrc:0 | DMType:000 | MemWrite:0 | WDSel:00 | DM1:00 | DM[addr]:00 | DM[addr+1]:00 | DM[addr+2]:00 | DM[addr+3]  0
Time: 20000 | clk: 0| PC/4: 00000002 | instr: 00000133 | Op:33 | rs1:00 | rs2:00 | rd:02 | Funct3:000 | Funct7:0000000 |A:00000000 | B:00000000 | ALUout:00000000 | addr:00 | din:00000000 | dout:00000000 |
Time: 20000 | clk:0 | RegWrite:1 | ALUop:00011 | ALUsrc:0 | DMType:000 | MemWrite:0 | WDSel:00 | DM1:00 | DM[addr]:00 | DM[addr+1]:00 | DM[addr+2]:00 | DM[addr+3]  0
Time: 25000 | clk: 1| PC/4: 00000003 | instr: 00210113 | Op:13 | rs1:02 | rs2:02 | rd:02 | Funct3:000 | Funct7:0000000 |A:00000000 | B:00000002 | ALUout:00000002 | addr:02 | din:00000000 | dout:00000000 |
Time: 25000 | clk:1 | RegWrite:1 | ALUop:00011 | ALUsrc:1 | DMType:000 | MemWrite:0 | WDSel:00 | DM1:00 | DM[addr]:00 | DM[addr+1]:00 | DM[addr+2]:00 | DM[addr+3]  0
Time: 30000 | clk: 0| PC/4: 00000003 | instr: 00210113 | Op:13 | rs1:02 | rs2:02 | rd:02 | Funct3:000 | Funct7:0000000 |A:00000000 | B:00000002 | ALUout:00000002 | addr:02 | din:00000000 | dout:00000000 |
Time: 30000 | clk:0 | RegWrite:1 | ALUop:00011 | ALUsrc:1 | DMType:000 | MemWrite:0 | WDSel:00 | DM1:00 | DM[addr]:00 | DM[addr+1]:00 | DM[addr+2]:00 | DM[addr+3]  0
Time: 35000 | clk: 1| PC/4: 00000003 | instr: 00210113 | Op:13 | rs1:02 | rs2:02 | rd:02 | Funct3:000 | Funct7:0000000 |A:00000000 | B:00000002 | ALUout:00000002 | addr:02 | din:00000000 | dout:00000000 |
Time: 35000 | clk:1 | RegWrite:1 | ALUop:00011 | ALUsrc:1 | DMType:000 | MemWrite:0 | WDSel:00 | DM1:00 | DM[addr]:00 | DM[addr+1]:00 | DM[addr+2]:00 | DM[addr+3]  0
Time: 40000 | clk: 0| PC/4: 00000003 | instr: 00210113 | Op:13 | rs1:02 | rs2:02 | rd:02 | Funct3:000 | Funct7:0000000 |A:00000000 | B:00000002 | ALUout:00000002 | addr:02 | din:00000000 | dout:00000000 |
Time: 40000 | clk:0 | RegWrite:1 | ALUop:00011 | ALUsrc:1 | DMType:000 | MemWrite:0 | WDSel:00 | DM1:00 | DM[addr]:00 | DM[addr+1]:00 | DM[addr+2]:00 | DM[addr+3]  0
Time: 45000 | clk: 1| PC/4: 00000003 | instr: 00210113 | Op:13 | rs1:02 | rs2:02 | rd:02 | Funct3:000 | Funct7:0000000 |A:00000000 | B:00000002 | ALUout:00000002 | addr:02 | din:00000000 | dout:00000000 |
Time: 45000 | clk:1 | RegWrite:1 | ALUop:00011 | ALUsrc:1 | DMType:000 | MemWrite:0 | WDSel:00 | DM1:00 | DM[addr]:00 | DM[addr+1]:00 | DM[addr+2]:00 | DM[addr+3]  0
Time: 50000 | clk: 0| PC/4: 00000003 | instr: 00210113 | Op:13 | rs1:02 | rs2:02 | rd:02 | Funct3:000 | Funct7:0000000 |A:00000000 | B:00000002 | ALUout:00000002 | addr:02 | din:00000000 | dout:00000000 |
Time: 50000 | clk:0 | RegWrite:1 | ALUop:00011 | ALUsrc:1 | DMType:000 | MemWrite:0 | WDSel:00 | DM1:00 | DM[addr]:00 | DM[addr+1]:00 | DM[addr+2]:00 | DM[addr+3]  0
Time: 55000 | clk: 1| PC/4: 00000003 | instr: 00210113 | Op:13 | rs1:02 | rs2:02 | rd:02 | Funct3:000 | Funct7:0000000 |A:00000000 | B:00000002 | ALUout:00000002 | addr:02 | din:00000000 | dout:00000000 |
Time: 55000 | clk:1 | RegWrite:1 | ALUop:00011 | ALUsrc:1 | DMType:000 | MemWrite:0 | WDSel:00 | DM1:00 | DM[addr]:00 | DM[addr+1]:00 | DM[addr+2]:00 | DM[addr+3]  0
Time: 60000 | clk: 0| PC/4: 00000003 | instr: 00210113 | Op:13 | rs1:02 | rs2:02 | rd:02 | Funct3:000 | Funct7:0000000 |A:00000000 | B:00000002 | ALUout:00000002 | addr:02 | din:00000000 | dout:00000000 |
Time: 60000 | clk:0 | RegWrite:1 | ALUop:00011 | ALUsrc:1 | DMType:000 | MemWrite:0 | WDSel:00 | DM1:00 | DM[addr]:00 | DM[addr+1]:00 | DM[addr+2]:00 | DM[addr+3]  0
Time: 65000 | clk: 1| PC/4: 00000003 | instr: 00210113 | Op:13 | rs1:02 | rs2:02 | rd:02 | Funct3:000 | Funct7:0000000 |A:00000000 | B:00000002 | ALUout:00000002 | addr:02 | din:00000000 | dout:00000000 |
Time: 65000 | clk:1 | RegWrite:1 | ALUop:00011 | ALUsrc:1 | DMType:000 | MemWrite:0 | WDSel:00 | DM1:00 | DM[addr]:00 | DM[addr+1]:00 | DM[addr+2]:00 | DM[addr+3]  0
Time: 70000 | clk: 0| PC/4: 00000003 | instr: 00210113 | Op:13 | rs1:02 | rs2:02 | rd:02 | Funct3:000 | Funct7:0000000 |A:00000000 | B:00000002 | ALUout:00000002 | addr:02 | din:00000000 | dout:00000000 |
Time: 70000 | clk:0 | RegWrite:1 | ALUop:00011 | ALUsrc:1 | DMType:000 | MemWrite:0 | WDSel:00 | DM1:00 | DM[addr]:00 | DM[addr+1]:00 | DM[addr+2]:00 | DM[addr+3]  0
Time: 75000 | clk: 1| PC/4: 00000003 | instr: 00210113 | Op:13 | rs1:02 | rs2:02 | rd:02 | Funct3:000 | Funct7:0000000 |A:00000000 | B:00000002 | ALUout:00000002 | addr:02 | din:00000000 | dout:00000000 |
Time: 75000 | clk:1 | RegWrite:1 | ALUop:00011 | ALUsrc:1 | DMType:000 | MemWrite:0 | WDSel:00 | DM1:00 | DM[addr]:00 | DM[addr+1]:00 | DM[addr+2]:00 | DM[addr+3]  0
Time: 80000 | clk: 0| PC/4: 00000003 | instr: 00210113 | Op:13 | rs1:02 | rs2:02 | rd:02 | Funct3:000 | Funct7:0000000 |A:00000000 | B:00000002 | ALUout:00000002 | addr:02 | din:00000000 | dout:00000000 |
Time: 80000 | clk:0 | RegWrite:1 | ALUop:00011 | ALUsrc:1 | DMType:000 | MemWrite:0 | WDSel:00 | DM1:00 | DM[addr]:00 | DM[addr+1]:00 | DM[addr+2]:00 | DM[addr+3]  0
Time: 85000 | clk: 1| PC/4: 00000003 | instr: 00210113 | Op:13 | rs1:02 | rs2:02 | rd:02 | Funct3:000 | Funct7:0000000 |A:00000000 | B:00000002 | ALUout:00000002 | addr:02 | din:00000000 | dout:00000000 |
Time: 85000 | clk:1 | RegWrite:1 | ALUop:00011 | ALUsrc:1 | DMType:000 | MemWrite:0 | WDSel:00 | DM1:00 | DM[addr]:00 | DM[addr+1]:00 | DM[addr+2]:00 | DM[addr+3]  0
Time: 90000 | clk: 0| PC/4: 00000003 | instr: 00210113 | Op:13 | rs1:02 | rs2:02 | rd:02 | Funct3:000 | Funct7:0000000 |A:00000000 | B:00000002 | ALUout:00000002 | addr:02 | din:00000000 | dout:00000000 |
Time: 90000 | clk:0 | RegWrite:1 | ALUop:00011 | ALUsrc:1 | DMType:000 | MemWrite:0 | WDSel:00 | DM1:00 | DM[addr]:00 | DM[addr+1]:00 | DM[addr+2]:00 | DM[addr+3]  0
Time: 95000 | clk: 1| PC/4: 00000003 | instr: 00210113 | Op:13 | rs1:02 | rs2:02 | rd:02 | Funct3:000 | Funct7:0000000 |A:00000000 | B:00000002 | ALUout:00000002 | addr:02 | din:00000000 | dout:00000000 |
Time: 95000 | clk:1 | RegWrite:1 | ALUop:00011 | ALUsrc:1 | DMType:000 | MemWrite:0 | WDSel:00 | DM1:00 | DM[addr]:00 | DM[addr+1]:00 | DM[addr+2]:00 | DM[addr+3]  0
Time: 100000 | clk: 0| PC/4: 00000003 | instr: 00210113 | Op:13 | rs1:02 | rs2:02 | rd:02 | Funct3:000 | Funct7:0000000 |A:00000000 | B:00000002 | ALUout:00000002 | addr:02 | din:00000000 | dout:00000000 |
Time: 100000 | clk:0 | RegWrite:1 | ALUop:00011 | ALUsrc:1 | DMType:000 | MemWrite:0 | WDSel:00 | DM1:00 | DM[addr]:00 | DM[addr+1]:00 | DM[addr+2]:00 | DM[addr+3]  0
Time: 105000 | clk: 1| PC/4: 00000003 | instr: 00210113 | Op:13 | rs1:02 | rs2:02 | rd:02 | Funct3:000 | Funct7:0000000