lab3/lab3.sim/sim_1/behav/xsim/simulate.log
Vivado Simulator 2018.3
Time resolution is 1 ps
WARNING: This core is supplied with a behavioral model. To model cycle-accurate behavior you must run timing simulation.
WARNING: This core is supplied with a behavioral model. To model cycle-accurate behavior you must run timing simulation.
Time: 0 | clk: 0| PC: 00000000 | instr: 000000b3 | Op:33 | rs1:00 | rs2:00 | rd:01 | immout:00000000 | A:00000000 | B:00000000 | ALUout:00000000 | addr:000 | din:00000000 | dout:00000000 |
Time:0 | clk:0 | Control | PCSel:00 | RegWrite:1 | WDSel:00 | ALUop:00011 | ASel:0 | BSel:0 | Zero:1 | DMType:000 | MemWrite:0 | WDSel:00 |
Time:0 | clk:0 | DMem | DM[0]:00 | DM[1]:00 | DM[2]:00 | DM[3]:00 | DM[4]:00 | DM[5]:00 | DM[6]:00 | DM[7]:00 | DM[8]:00 | DM[9]:00 | DM[10]:00 | DM[11]:00 | DM[12]:00 | DM[13]:00 | DM[14]:00 | DM[15]:00 |
Time:0 | clk:0 | DMem | DM[16]:00 | DM[17]:00 | DM[18]:00 | DM[19]:00 | DM[20]:00 | DM[21]:00 | DM[22]:00 | DM[23]:00 | DM[24]:00 | DM[25]:00 | DM[26]:00 | DM[27]:00 | DM[28]:00 | DM[29]:00 | DM[30]:00 | DM[31]:00 |
Time:0 | clk:0 | Register | x0:00000000 | x1:00000001 | x2:00000002 | x3:00000003 | x4:00000004 | x5:00000005 | x6:00000006 | x7:00000007 | x8:00000008 | x9:00000009 | x10:0000000a | x11:0000000b | x12:0000000c | x13:0000000d | x14:0000000e | x15:0000000f |
Time:0 | clk:0 | Register | x16:00000010 | x17:00000011 | x18:00000012 | x19:00000013 | x20:00000014 | x21:00000015 | x22:00000016 | x23:00000017 | x24:00000018 | x25:00000019 | x26:0000001a | x27:0000001b | x28:0000001c | x29:0000001d | x30:0000001e | x31:0000001f |
Time: 5000 | clk: 1| PC: 00000000 | instr: 000000b3 | Op:33 | rs1:00 | rs2:00 | rd:01 | immout:00000000 | A:00000000 | B:00000000 | ALUout:00000000 | addr:000 | din:00000000 | dout:00000000 |
Time:5000 | clk:1 | Control | PCSel:00 | RegWrite:1 | WDSel:00 | ALUop:00011 | ASel:0 | BSel:0 | Zero:1 | DMType:000 | MemWrite:0 | WDSel:00 |
Time:5000 | clk:1 | DMem | DM[0]:00 | DM[1]:00 | DM[2]:00 | DM[3]:00 | DM[4]:00 | DM[5]:00 | DM[6]:00 | DM[7]:00 | DM[8]:00 | DM[9]:00 | DM[10]:00 | DM[11]:00 | DM[12]:00 | DM[13]:00 | DM[14]:00 | DM[15]:00 |
Time:5000 | clk:1 | DMem | DM[16]:00 | DM[17]:00 | DM[18]:00 | DM[19]:00 | DM[20]:00 | DM[21]:00 | DM[22]:00 | DM[23]:00 | DM[24]:00 | DM[25]:00 | DM[26]:00 | DM[27]:00 | DM[28]:00 | DM[29]:00 | DM[30]:00 | DM[31]:00 |
Time:5000 | clk:1 | Register | x0:00000000 | x1:00000000 | x2:00000002 | x3:00000003 | x4:00000004 | x5:00000005 | x6:00000006 | x7:00000007 | x8:00000008 | x9:00000009 | x10:0000000a | x11:0000000b | x12:0000000c | x13:0000000d | x14:0000000e | x15:0000000f |
Time:5000 | clk:1 | Register | x16:00000010 | x17:00000011 | x18:00000012 | x19:00000013 | x20:00000014 | x21:00000015 | x22:00000016 | x23:00000017 | x24:00000018 | x25:00000019 | x26:0000001a | x27:0000001b | x28:0000001c | x29:0000001d | x30:0000001e | x31:0000001f |
Time: 10000 | clk: 0| PC: 00000000 | instr: 000000b3 | Op:33 | rs1:00 | rs2:00 | rd:01 | immout:00000000 | A:00000000 | B:00000000 | ALUout:00000000 | addr:000 | din:00000000 | dout:00000000 |
Time:10000 | clk:0 | Control | PCSel:00 | RegWrite:1 | WDSel:00 | ALUop:00011 | ASel:0 | BSel:0 | Zero:1 | DMType:000 | MemWrite:0 | WDSel:00 |
Time:10000 | clk:0 | DMem | DM[0]:00 | DM[1]:00 | DM[2]:00 | DM[3]:00 | DM[4]:00 | DM[5]:00 | DM[6]:00 | DM[7]:00 | DM[8]:00 | DM[9]:00 | DM[10]:00 | DM[11]:00 | DM[12]:00 | DM[13]:00 | DM[14]:00 | DM[15]:00 |
Time:10000 | clk:0 | DMem | DM[16]:00 | DM[17]:00 | DM[18]:00 | DM[19]:00 | DM[20]:00 | DM[21]:00 | DM[22]:00 | DM[23]:00 | DM[24]:00 | DM[25]:00 | DM[26]:00 | DM[27]:00 | DM[28]:00 | DM[29]:00 | DM[30]:00 | DM[31]:00 |
Time:10000 | clk:0 | Register | x0:00000000 | x1:00000000 | x2:00000002 | x3:00000003 | x4:00000004 | x5:00000005 | x6:00000006 | x7:00000007 | x8:00000008 | x9:00000009 | x10:0000000a | x11:0000000b | x12:0000000c | x13:0000000d | x14:0000000e | x15:0000000f |
Time:10000 | clk:0 | Register | x16:00000010 | x17:00000011 | x18:00000012 | x19:00000013 | x20:00000014 | x21:00000015 | x22:00000016 | x23:00000017 | x24:00000018 | x25:00000019 | x26:0000001a | x27:0000001b | x28:0000001c | x29:0000001d | x30:0000001e | x31:0000001f |
Time: 15000 | clk: 1| PC: 00000000 | instr: 000000b3 | Op:33 | rs1:00 | rs2:00 | rd:01 | immout:00000000 | A:00000000 | B:00000000 | ALUout:00000000 | addr:000 | din:00000000 | dout:00000000 |
Time:15000 | clk:1 | Control | PCSel:00 | RegWrite:1 | WDSel:00 | ALUop:00011 | ASel:0 | BSel:0 | Zero:1 | DMType:000 | MemWrite:0 | WDSel:00 |
Time:15000 | clk:1 | DMem | DM[0]:00 | DM[1]:00 | DM[2]:00 | DM[3]:00 | DM[4]:00 | DM[5]:00 | DM[6]:00 | DM[7]:00 | DM[8]:00 | DM[9]:00 | DM[10]:00 | DM[11]:00 | DM[12]:00 | DM[13]:00 | DM[14]:00 | DM[15]:00 |
Time:15000 | clk:1 | DMem | DM[16]:00 | DM[17]:00 | DM[18]:00 | DM[19]:00 | DM[20]:00 | DM[21]:00 | DM[22]:00 | DM[23]:00 | DM[24]:00 | DM[25]:00 | DM[26]:00 | DM[27]:00 | DM[28]:00 | DM[29]:00 | DM[30]:00 | DM[31]:00 |
Time:15000 | clk:1 | Register | x0:00000000 | x1:00000000 | x2:00000002 | x3:00000003 | x4:00000004 | x5:00000005 | x6:00000006 | x7:00000007 | x8:00000008 | x9:00000009 | x10:0000000a | x11:0000000b | x12:0000000c | x13:0000000d | x14:0000000e | x15:0000000f |
Time:15000 | clk:1 | Register | x16:00000010 | x17:00000011 | x18:00000012 | x19:00000013 | x20:00000014 | x21:00000015 | x22:00000016 | x23:00000017 | x24:00000018 | x25:00000019 | x26:0000001a | x27:0000001b | x28:0000001c | x29:0000001d | x30:0000001e | x31:0000001f |
Time: 20000 | clk: 0| PC: 00000000 | instr: 000000b3 | Op:33 | rs1:00 | rs2:00 | rd:01 | immout:00000000 | A:00000000 | B:00000000 | ALUout:00000000 | addr:000 | din:00000000 | dout:00000000 |
Time:20000 | clk:0 | Control | PCSel:00 | RegWrite:1 | WDSel:00 | ALUop:00011 | ASel:0 | BSel:0 | Zero:1 | DMType:000 | MemWrite:0 | WDSel:00 |
Time:20000 | clk:0 | DMem | DM[0]:00 | DM[1]:00 | DM[2]:00 | DM[3]:00 | DM[4]:00 | DM[5]:00 | DM[6]:00 | DM[7]:00 | DM[8]:00 | DM[9]:00 | DM[10]:00 | DM[11]:00 | DM[12]:00 | DM[13]:00 | DM[14]:00 | DM[15]:00 |
Time:20000 | clk:0 | DMem | DM[16]:00 | DM[17]:00 | DM[18]:00 | DM[19]:00 | DM[20]:00 | DM[21]:00 | DM[22]:00 | DM[23]:00 | DM[24]:00 | DM[25]:00 | DM[26]:00 | DM[27]:00 | DM[28]:00 | DM[29]:00 | DM[30]:00 | DM[31]:00 |
Time:20000 | clk:0 | Register | x0:00000000 | x1:00000000 | x2:00000002 | x3:00000003 | x4:00000004 | x5:00000005 | x6:00000006 | x7:00000007 | x8:00000008 | x9:00000009 | x10:0000000a | x11:0000000b | x12:0000000c | x13:0000000d | x14:0000000e | x15:0000000f |
Time:20000 | clk:0 | Register | x16:00000010 | x17:00000011 | x18:00000012 | x19:00000013 | x20:00000014 | x21:00000015 | x22:00000016 | x23:00000017 | x24:00000018 | x25:00000019 | x26:0000001a | x27:0000001b | x28:0000001c | x29:0000001d | x30:0000001e | x31:0000001f |
Time: 25000 | clk: 1| PC: 00000000 | instr: 000000b3 | Op:33 | rs1:00 | rs2:00 | rd:01 | immout:00000000 | A:00000000 | B:00000000 | ALUout:00000000 | addr:000 | din:00000000 | dout:00000000 |
Time:25000 | clk:1 | Control | PCSel:00 | RegWrite:1 | WDSel:00 | ALUop:00011 | ASel:0 | BSel:0 | Zero:1 | DMType:000 | MemWrite:0 | WDSel:00 |
Time:25000 | clk:1 | DMem | DM[0]:00 | DM[1]:00 | DM[2]:00 | DM[3]:00 | DM[4]:00 | DM[5]:00 | DM[6]:00 | DM[7]:00 | DM[8]:00 | DM[9]:00 | DM[10]:00 | DM[11]:00 | DM[12]:00 | DM[13]:00 | DM[14]:00 | DM[15]:00 |
Time:25000 | clk:1 | DMem | DM[16]:00 | DM[17]:00 | DM[18]:00 | DM[19]:00 | DM[20]:00 | DM[21]:00 | DM[22]:00 | DM[23]:00 | DM[24]:00 | DM[25]:00 | DM[26]:00 | DM[27]:00 | DM[28]:00 | DM[29]:00 | DM[30]:00 | DM[31]:00 |
Time:25000 | clk:1 | Register | x0:00000000 | x1:00000000 | x2:00000002 | x3:00000003 | x4:00000004 | x5:00000005 | x6:00000006 | x7:00000007 | x8:00000008 | x9:00000009 | x10:0000000a | x11:0000000b | x12:0000000c | x13:0000000d | x14:0000000e | x15:0000000f |
Time:25000 | clk:1 | Register | x16:00000010 | x17:00000011 | x18:00000012 | x19:00000013 | x20:00000014 | x21:00000015 | x22:00000016 | x23:00000017 | x24:00000018 | x25:00000019 | x26:0000001a | x27:0000001b | x28:0000001c | x29:0000001d | x30:0000001e | x31:0000001f |
Time: 30000 | clk: 0| PC: 00000000 | instr: 000000b3 | Op:33 | rs1:00 | rs2:00 | rd:01 | immout:00000000 | A:00000000 | B:00000000 | ALUout:00000000 | addr:000 | din:00000000 | dout:00000000 |
Time:30000 | clk:0 | Control | PCSel:00 | RegWrite:1 | WDSel:00 | ALUop:00011 | ASel:0 | BSel:0 | Zero:1 | DMType:000 | MemWrite:0 | WDSel:00 |
Time:30000 | clk:0 | DMem | DM[0]:00 | DM[1]:00 | DM[2]:00 | DM[3]:00 | DM[4]:00 | DM[5]:00 | DM[6]:00 | DM[7]:00 | DM[8]:00 | DM[9]:00 | DM[10]:00 | DM[11]:00 | DM[12]:00 | DM[13]:00 | DM[14]:00 | DM[15]:00 |
Time:30000 | clk:0 | DMem | DM[16]:00 | DM[17]:00 | DM[18]:00 | DM[19]:00 | DM[20]:00 | DM[21]:00 | DM[22]:00 | DM[23]:00 | DM[24]:00 | DM[25]:00 | DM[26]:00 | DM[27]:00 | DM[28]:00 | DM[29]:00 | DM[30]:00 | DM[31]:00 |
Time:30000 | clk:0 | Register | x0:00000000 | x1:00000000 | x2:00000002 | x3:00000003 | x4:00000004 | x5:00000005 | x6:00000006 | x7:00000007 | x8:00000008 | x9:00000009 | x10:0000000a | x11:0000000b | x12:0000000c | x13:0000000d | x14:0000000e | x15:0000000f |
Time:30000 | clk:0 | Register | x16:00000010 | x17:00000011 | x18:00000012 | x19:00000013 | x20:00000014 | x21:00000015 | x22:00000016 | x23:00000017 | x24:00000018 | x25:00000019 | x26:0000001a | x27:0000001b | x28:0000001c | x29:0000001d | x30:0000001e | x31:0000001f |
Time: 35000 | clk: 1| PC: 00000000 | instr: 000000b3 | Op:33 | rs1:00 | rs2:00 | rd:01 | immout:00000000 | A:00000000 | B:00000000 | ALUout:00000000 | addr:000 | din:00000000 | dout:00000000 |
Time:35000 | clk:1 | Control | PCSel:00 | RegWrite:1 | WDSel:00 | ALUop:00011 | ASel:0 | BSel:0 | Zero:1 | DMType:000 | MemWrite:0 | WDSel:00 |
Time:35000 | clk:1 | DMem | DM[0]:00 | DM[1]:00 | DM[2]:00 | DM[3]:00 | DM[4]:00 | DM[5]:00 | DM[6]:00 | DM[7]:00 | DM[8]:00 | DM[9]:00 | DM[10]:00 | DM[11]:00 | DM[12]:00 | DM[13]:00 | DM[14]:00 | DM[15]:00 |
Time:35000 | clk:1 | DMem | DM[16]:00 | DM[17]:00 | DM[18]:00 | DM[19]:00 | DM[20]:00 | DM[21]:00 | DM[22]:00 | DM[23]:00 | DM[24]:00 | DM[25]:00 | DM[26]:00 | DM[27]:00 | DM[28]:00 | DM[29]:00 | DM[30]:00 | DM[31]:00 |
Time:35000 | clk:1 | Register | x0:00000000 | x1:00000000 | x2:00000002 | x3:00000003 | x4:00000004 | x5:00000005 | x6:00000006 | x7:00000007 | x8:00000008 | x9:00000009 | x10:0000000a | x11:0000000b | x12:0000000c | x13:0000000d | x14:0000000e | x15:0000000f |
Time:35000 | clk:1 | Register | x16:00000010 | x17:00000011 | x18:00000012 | x19:00000013 | x20:00000014 | x21:00000015 | x22:00000016 | x23:00000017 | x24:00000018 | x25:00000019 | x26:0000001a | x27:0000001b | x28:0000001c | x29:0000001d | x30:0000001e | x31:0000001f |
Time: 40000 | clk: 0| PC: 00000000 | instr: 000000b3 | Op:33 | rs1:00 | rs2:00 | rd:01 | immout:00000000 | A:00000000 | B:00000000 | ALUout:00000000 | addr:000 | din:00000000 | dout:00000000 |
Time:40000 | clk:0 | Control | PCSel:00 | RegWrite:1 | WDSel:00 | ALUop:00011 | ASel:0 | BSel:0 | Zero:1 | DMType:000 | MemWrite:0 | WDSel:00 |
Time:40000 | clk:0 | DMem | DM[0]:00 | DM[1]:00 | DM[2]:00 | DM[3]:00 | DM[4]:00 | DM[5]:00 | DM[6]:00 | DM[7]:00 | DM[8]:00 | DM[9]:00 | DM[10]:00 | DM[11]:00 | DM[12]:00 | DM[13]:00 | DM[14]:00 | DM[15]:00 |
Time:40000 | clk:0 | DMem | DM[16]:00 | DM[17]:00 | DM[18]:00 | DM[19]:00 | DM[20]:00 | DM[21]:00 | DM[22]:00 | DM[23]:00 | DM[24]:00 | DM[25]:00 | DM[26]:00 | DM[27]:00 | DM[28]:00 | DM[29]:00 | DM[30]:00 | DM[31]:00 |
Time:40000 | clk:0 | Register | x0:00000000 | x1:00000000 | x2:00000002 | x3:00000003 | x4:00000004 | x5:00000005 | x6:00000006 | x7:00000007 | x8:00000008 | x9:00000009 | x10:0000000a | x11:0000000b | x12:0000000c | x13:0000000d | x14:0000000e | x15:0000000f |
Time:40000 | clk:0 | Register | x16:00000010 | x17:00000011 | x18:00000012 | x19:00000013 | x20:00000014 | x21:00000015 | x22:00000016 | x23:00000017 | x24:00000018 | x25:00000019 | x26:0000001a | x27:0000001b | x28:0000001c | x29:0000001d | x30:0000001e | x31:0000001f |
Time: 45000 | clk: 1| PC: 00000000 | instr: 000000b3 | Op:33 | rs1:00 | rs2:00 | rd:01 | immout:00000000 | A:00000000 | B:00000000 | ALUout:00000000 | addr:000 | din:00000000 | dout:00000000 |
Time:45000 | clk:1 | Control | PCSel:00 | RegWrite:1 | WDSel:00 | ALUop:00011 | ASel:0 | BSel:0 | Zero:1 | DMType:000 | MemWrite:0 | WDSel:00 |
Time:45000 | clk:1 | DMem | DM[0]:00 | DM[1]:00 | DM[2]:00 | DM[3]:00 | DM[4]:00 | DM[5]:00 | DM[6]:00 | DM[7]:00 | DM[8]:00 | DM[9]:00 | DM[10]:00 | DM[11]:00 | DM[12]:00 | DM[13]:00 | DM[14]:00 | DM[15]:00 |
Time:45000 | clk:1 | DMem | DM[16]:00 | DM[17]:00 | DM[18]:00 | DM[19]:00 | DM[20]:00 | DM[21]:00 | DM[22]:00 | DM[23]:00 | DM[24]:00 | DM[25]:00 | DM[26]:00 | DM[27]:00 | DM[28]:00 | DM[29]:00 | DM[30]:00 | DM[31]:00 |
Time:45000 | clk:1 | Register | x0:00000000 | x1:00000000 | x2:00000002 | x3:00000003 | x4:00000004 | x5:00000005 | x6:00000006 | x7:00000007 | x8:00000008 | x9:00000009 | x10:0000000a | x11:0000000b | x12:0000000c | x13:0000000d | x14:0000000e | x15:0000000f |
Time:45000 | clk:1 | Register | x16:00000010 | x17:00000011 | x18:00000012 | x19:00000013 | x20:00000014 | x21:00000015 | x22:00000016 | x23:00000017 | x24:00000018 | x25:00000019 | x26:0000001a | x27:0000001b | x28:0000001c | x29:0000001d | x30:0000001e | x31:0000001f |
Time: 50000 | clk: 0| PC: 00000000 | instr: 000000b3 | Op:33 | rs1:00 | rs2:00 | rd:01 | immout:00000000 | A:00000000 | B:00000000 | ALUout:00000000 | addr:000 | din:00000000 | dout:00000000 |
Time:50000 | clk:0 | Control | PCSel:00 | RegWrite:1 | WDSel:00 | ALUop:00011 | ASel:0 | BSel:0 | Zero:1 | DMType:000 | MemWrite:0 | WDSel:00 |
Time:50000 | clk:0 | DMem | DM[0]:00 | DM[1]:00 | DM[2]:00 | DM[3]:00 | DM[4]:00 | DM[5]:00 | DM[6]:00 | DM[7]:00 | DM[8]:00 | DM[9]:00 | DM[10]:00 | DM[11]:00 | DM[12]:00 | DM[13]:00 | DM[14]:00 | DM[15]:00 |
Time:50000 | clk:0 | DMem | DM[16]:00 | DM[17]:00 | DM[18]:00 | DM[19]:00 | DM[20]:00 | DM[21]:00 | DM[22]:00 | DM[23]:00 | DM[24]:00 | DM[25]:00 | DM[26]:00 | DM[27]:00 | DM[28]:00 | DM[29]:00 | DM[30]:00 | DM[31]:00 |
Time:50000 | clk:0 | Register | x0:00000000 | x1:00000000 | x2:00000002 | x3:00000003 | x4:00000004 | x5:00000005 | x6:00000006 | x7:00000007 | x8:00000008 | x9:00000009 | x10:0000000a | x11:0000000b | x12:0000000c | x13:0000000d | x14:0000000e | x15:0000000f |
Time:50000 | clk:0 | Register | x16:00000010 | x17:00000011 | x18:00000012 | x19:00000013 | x20:00000014 | x21:00000015 | x22:00000016 | x23:00000017 | x24:00000018 | x25:00000019 | x26:0000001a | x27:0000001b | x28:0000001c | x29:0000001d | x30:0000001e | x31:0000001f |
Time: 55000 | clk: 1| PC: 00000000 | instr: 000000b3 | Op:33 | rs1:00 | rs2:00 | rd:01 | immout:00000000 | A:00000000 | B:00000000 | ALUout:00000000 | addr:000 | din:00000000 | dout:00000000 |
Time:55000 | clk:1 | Control | PCSel:00 | RegWrite:1 | WDSel:00 | ALUop:00011 | ASel:0 | BSel:0 | Zero:1 | DMType:000 | MemWrite:0 | WDSel:00 |
Time:55000 | clk:1 | DMem | DM[0]:00 | DM[1]:00 | DM[2]:00 | DM[3]:00 | DM[4]:00 | DM[5]:00 | DM[6]:00 | DM[7]:00 | DM[8]:00 | DM[9]:00 | DM[10]:00 | DM[11]:00 | DM[12]:00 | DM[13]:00 | DM[14]:00 | DM[15]:00 |
Time:55000 | clk:1 | DMem | DM[16]:00 | DM[17]:00 | DM[18]:00 | DM[19]:00 | DM[20]:00 | DM[21]:00 | DM[22]:00 | DM[23]:00 | DM[24]:00 | DM[25]:00 | DM[26]:00 | DM[27]:00 | DM[28]:00 | DM[29]:00 | DM[30]:00 | DM[31]:00 |
Time:55000 | clk:1 | Register | x0:00000000 | x1:00000000 | x2:00000002 | x3:00000003 | x4:00000004 | x5:00000005 | x6:00000006 | x7:00000007 | x8:00000008 | x9:00000009 | x10:0000000a | x11:0000000b | x12:0000000c | x13:0000000d | x14:0000000e | x15:0000000f |
Time:55000 | clk:1 | Register | x16:00000010 | x17:00000011 | x18:00000012 | x19:00000013 | x20:00000014 | x21:00000015 | x22:00000016 | x23:00000017 | x24:00000018 | x25:00000019 | x26:0000001a | x27:0000001b | x28:0000001c | x29:0000001d | x30:0000001e | x31:0000001f |
Time: 60000 | clk: 0| PC: 00000000 | instr: 000000b3 | Op:33 | rs1:00 | rs2:00 | rd:01 | immout:00000000 | A:00000000 | B:00000000 | ALUout:00000000 | addr:000 | din:00000000 | dout:00000000 |
Time:60000 | clk:0 | Control | PCSel:00 | RegWrite:1 | WDSel:00 | ALUop:00011 | ASel:0 | BSel:0 | Zero:1 | DMType:000 | MemWrite:0 | WDSel:00 |
Time:60000 | clk:0 | DMem | DM[0]:00 | DM[1]:00 | DM[2]:00 | DM[3]:00 | DM[4]:00 | DM[5]:00 | DM[6]:00 | DM[7]:00 | DM[8]:00 | DM[9]:00 | DM[10]:00 | DM[11]:00 | DM[12]:00 | DM[13]:00 | DM[14]:00 | DM[15]:00 |
Time:60000 | clk:0 | DMem | DM[16]:00 | DM[17]:00 | DM[18]:00 | DM[19]:00 | DM[20]:00 | DM[21]:00 | DM[22]:00 | DM[23]:00 | DM[24]:00 | DM[25]:00 | DM[26]:00 | DM[27]:00 | DM[28]:00 | DM[29]:00 | DM[30]:00 | DM[31]:00 |
Time:60000 | clk:0 | Register | x0:00000000 | x1:00000000 | x2:00000002 | x3:00000003 | x4:00000004 | x5:00000005 | x6:00000006 | x7:00000007 | x8:00000008 | x9:00000009 | x10:0000000a | x11:0000000b | x12:0000000c | x13:0000000d | x14:0000000e | x15:0000000f |
Time:60000 | clk:0 | Register | x16:00000010 | x17:00000011 | x18:00000012 | x19:00000013 | x20:00000014 | x21:00000015 | x22:00000016 | x23:00000017 | x24:00000018 | x25:00000019 | x26:0000001a | x27:0000001b | x28:0000001c | x29:0000001d | x30:0000001e | x31:0000001f |
Time: 65000 | clk: 1| PC: 00000000 | instr: 000000b3 | Op:33 | rs1:00 | rs2:00 | rd:01 | immout:00000000 | A:00000000 | B:00000000 | ALUout:00000000 | addr:000 | din:00000000 | dout:00000000 |
Time:65000 | clk:1 | Control | PCSel:00 | RegWrite:1 | WDSel:00 | ALUop:00011 | ASel:0 | BSel:0 | Zero:1 | DMType:000 | MemWrite:0 | WDSel:00 |
Time:65000 | clk:1 | DMem | DM[0]:00 | DM[1]:00 | DM[2]:00 | DM[3]:00 | DM[4]:00 | DM[5]:00 | DM[6]:00 | DM[7]:00 | DM[8]:00 | DM[9]:00 | DM[10]:00 | DM[11]:00 | DM[12]:00 | DM[13]:00 | DM[14]:00 | DM[15]:00 |
Time:65000 | clk:1 | DMem | DM[16]:00 | DM[17]:00 | DM[18]:00 | DM[19]:00 | DM[20]:00 | DM[21]:00 | DM[22]:00 | DM[23]:00 | DM[24]:00 | DM[25]:00 | DM[26]:00 | DM[27]:00 | DM[28]:00 | DM[29]:00 | DM[30]:00 | DM[31]:00 |
Time:65000 | clk:1 | Register | x0:00000000 | x1:00000000 | x2:00000002 | x3:00000003 | x4:00000004 | x5:00000005 | x6:00000006 | x7:00000007 | x8:00000008 | x9:00000009 | x10:0000000a | x11:0000000b | x12:0000000c | x13:0000000d | x14:0000000e | x15:0000000f |
Time:65000 | clk:1 | Register | x16:00000010 | x17:00000011 | x18:00000012 | x19:00000013 | x20:00000014 | x21:00000015 | x22:00000016 | x23:00000017 | x24:00000018 | x25:00000019 | x26:0000001a | x27:0000001b | x28:0000001c | x29:0000001d | x30:0000001e | x31:0000001f |
Time: 70000 | clk: 0| PC: 00000000 | instr: 000000b3 | Op:33 | rs1:00 | rs2:00 | rd:01 | immout:00000000 | A:00000000 | B:00000000 | ALUout:00000000 | addr:000 | din:00000000 | dout:00000000 |
Time:70000 | clk:0 | Control | PCSel:00 | RegWrite:1 | WDSel:00 | ALUop:00011 | ASel:0 | BSel:0 | Zero:1 | DMType:000 | MemWrite:0 | WDSel:00 |
Time:70000 | clk:0 | DMem | DM[0]:00 | DM[1]:00 | DM[2]:00 | DM[3]:00 | DM[4]:00 | DM[5]:00 | DM[6]:00 | DM[7]:00 | DM[8]:00 | DM[9]:00 | DM[10]:00 | DM[11]:00 | DM[12]:00 | DM[13]:00 | DM[14]:00 | DM[15]:00 |
Time:70000 | clk:0 | DMem | DM[16]:00 | DM[17]:00 | DM[18]:00 | DM[19]:00 | DM[20]:00 | DM[21]:00 | DM[22]:00 | DM[23]:00 | DM[24]:00 | DM[25]:00 | DM[26]:00 | DM[27]:00 | DM[28]:00 | DM[29]:00 | DM[30]:00 | DM[31]:00 |
Time:70000 | clk:0 | Register | x0:00000000 | x1:00000000 | x2:00000002 | x3:00000003 | x4:00000004 | x5:00000005 | x6:00000006 | x7:00000007 | x8:00000008 | x9:00000009 | x10:0000000a | x11:0000000b | x12:0000000c | x13:0000000d | x14:0000000e | x15:0000000f |
Time:70000 | clk:0 | Register | x16:00000010 | x17:00000011 | x18:00000012 | x19:00000013 | x20:00000014 | x21:00000015 | x22:00000016 | x23:00000017 | x24:00000018 | x25:00000019 | x26:0000001a | x27:0000001b | x28:0000001c | x29:0000001d | x30:0000001e | x31:0000001f |
Time: 75000 | clk: 1| PC: 00000000 | instr: 000000b3 | Op:33 | rs1:00 | rs2:00 | rd:01 | immout:00000000 | A:00000000 | B:00000000 | ALUout:00000000 | addr:000 | din:00000000 | dout:00000000 |
Time:75000 | clk:1 | Control | PCSel:00 | RegWrite:1 | WDSel:00 | ALUop:00011 | ASel:0 | BSel:0 | Zero:1 | DMType:000 | MemWrite:0 | WDSel:00 |
Time:75000 | clk:1 | DMem | DM[0]:00 | DM[1]:00 | DM[2]:00 | DM[3]:00 | DM[4]:00 | DM[5]:00 | DM[6]:00 | DM[7]:00 | DM[8]:00 | DM[9]:00 | DM[10]:00 | DM[11]:00 | DM[12]:00 | DM[13]:00 | DM[14]:00 | DM[15]:00 |
Time:75000 | clk:1 | DMem | DM[16]:00 | DM[17]:00 | DM[18]:00 | DM[19]:00 | DM[20]:00 | DM[21]:00 | DM[22]:00 | DM[23]:00 | DM[24]:00 | DM[25]:00 | DM[26]:00 | DM[27]:00 | DM[28]:00 | DM[29]:00 | DM[30]:00 | DM[31]:00 |
Time:75000 | clk:1 | Register | x0:00000000 | x1:00000000 | x2:00000002 | x3:00000003 | x4:00000004 | x5:00000005 | x6:00000006 | x7:00000007 | x8:00000008 | x9:00000009 | x10:0000000a | x11:0000000b | x12:0000000c | x13:0000000d | x14:0000000e | x15:0000000f |
Time:75000 | clk:1 | Register | x16:00000010 | x17:00000011 | x18:00000012 | x19:00000013 | x20:00000014 | x21:00000015 | x22:00000016 | x23:00000017 | x24:00000018 | x25:00000019 | x26:0000001a | x27:0000001b | x28:0000001c | x29:0000001d | x30:0000001e | x31:0000001f |
Time: 80000 | clk: 0| PC: 00000000 | instr: 000000b3 | Op:33 | rs1:00 | rs2:00 | rd:01 | immout:00000000 | A:00000000 | B:00000000 | ALUout:00000000 | addr:000 | din:00000000 | dout:00000000 |
Time:80000 | clk:0 | Control | PCSel:00 | RegWrite:1 | WDSel:00 | ALUop:00011 | ASel:0 | BSel:0 | Zero:1 | DMType:000 | MemWrite:0 | WDSel:00 |
Time:80000 | clk:0 | DMem | DM[0]:00 | DM[1]:00 | DM[2]:00 | DM[3]:00 | DM[4]:00 | DM[5]:00 | DM[6]:00 | DM[7]:00 | DM[8]:00 | DM[9]:00 | DM[10]:00 | DM[11]:00 | DM[12]:00 | DM[13]:00 | DM[14]:00 | DM[15]:00 |
Time:80000 | clk:0 | DMem | DM[16]:00 | DM[17]:00 | DM[18]:00 | DM[19]:00 | DM[20]:00 | DM[21]:00 | DM[22]:00 | DM[23]:00 | DM[24]:00 | DM[25]:00 | DM[26]:00 | DM[27]:00 | DM[28]:00 | DM[29]:00 | DM[30]:00 | DM[31]:00 |
Time:80000 | clk:0 | Register | x0:00000000 | x1:00000000 | x2:00000002 | x3:00000003 | x4:00000004 | x5:00000005 | x6:00000006 | x7:00000007 | x8:00000008 | x9:00000009 | x10:0000000a | x11:0000000b | x12:0000000c | x13:0000000d | x14:0000000e | x15:0000000f |
Time:80000 | clk:0 | Register | x16:00000010 | x17:00000011 | x18:00000012 | x19:00000013 | x20:00000014 | x21:00000015 | x22:00000016 | x23:00000017 | x24:00000018 | x25:00000019 | x26:0000001a | x27:0000001b | x28:0000001c | x29:0000001d | x30:0000001e | x31:0000001f |
Time: 85000 | clk: 1| PC: 00000000 | instr: 000000b3 | Op:33 | rs1:00 | rs2:00 | rd:01 | immout:00000000 | A:00000000 | B:00000000 | ALUout:00000000 | addr:000 | din:00000000 | dout:00000000 |
Time:85000 | clk:1 | Control | PCSel:00 | RegWrite:1 | WDSel:00 | ALUop:00011 | ASel:0 | BSel:0 | Zero:1 | DMType:000 | MemWrite:0 | WDSel:00 |
Time:85000 | clk:1 | DMem | DM[0]:00 | DM[1]:00 | DM[2]:00 | DM[3]:00 | DM[4]:00 | DM[5]:00 | DM[6]:00 | DM[7]:00 | DM[8]:00 | DM[9]:00 | DM[10]:00 | DM[11]:00 | DM[12]:00 | DM[13]:00 | DM[14]:00 | DM[15]:00 |
Time:85000 | clk:1 | DMem | DM[16]:00 | DM[17]:00 | DM[18]:00 | DM[19]:00 | DM[20]:00 | DM[21]:00 | DM[22]:00 | DM[23]:00 | DM[24]:00 | DM[25]:00 | DM[26]:00 | DM[27]:00 | DM[28]:00 | DM[29]:00 | DM[30]:00 | DM[31]:00 |
Time:85000 | clk:1 | Register | x0:00000000 | x1:00000000 | x2:00000002 | x3:00000003 | x4:00000004 | x5:00000005 | x6:00000006 | x7:00000007 | x8:00000008 | x9:00000009 | x10:0000000a | x11:0000000b | x12:0000000c | x13:0000000d | x14:0000000e | x15:0000000f |
Time:85000 | clk:1 | Register | x16:00000010 | x17:00000011 | x18:00000012 | x19:00000013 | x20:00000014 | x21:00000015 | x22:00000016 | x23:00000017 | x24:00000018 | x25:00000019 | x26:0000001a | x27:0000001b | x28:0000001c | x29:0000001d | x30:0000001e | x31:0000001f |
