lab3/lab3.sim/sim_1/behav/xsim/simulate.log
Vivado Simulator 2018.3
Time resolution is 1 ps
WARNING: This core is supplied with a behavioral model. To model cycle-accurate behavior you must run timing simulation.
WARNING: This core is supplied with a behavioral model. To model cycle-accurate behavior you must run timing simulation.
Time: 0 | clk: 0| PC/4: 00000000 | instr: 00000093 | Op:13 | rs1:00 | rs2:00 | rd:01 | Funct3:000 | Funct7:0000000 |A:00000000 | B:00000000 | ALUout:00000000 | addr:00 | din:00000000 | dout:00000000 |
Time:0 | clk:0 | Control | RegWrite:1 | WDSel:00 | ALUop:00011 | ASel:0 | BSel:1 | DMType:000 | MemWrite:0 | WDSel:00 | 
Time:0 | clk:0 | DMem | DM[0]:00 | DM[1]:00 | DM[2]:00 | DM[3]:00 | DM[4]:00 | DM[5]:00 | DM[6]:00 | DM[7]:00 | DM[8]:00 | DM[9]:00 | DM[10]:00 | DM[11]:00 | DM[12]:00 | DM[13]:00 | DM[14]:00 | DM[15]:00 |
Time:0 | clk:0 | DMem | DM[16]:00 | DM[17]:00 | DM[18]:00 | DM[19]:00 | DM[20]:00 | DM[21]:00 | DM[22]:00 | DM[23]:00 | DM[24]:00 | DM[25]:00 | DM[26]:00 | DM[27]:00 | DM[28]:00 | DM[29]:00 | DM[30]:00 | DM[31]:00 |
Time:0 | clk:0 | Register| x0:00000000 | x1:00000001 | x2:00000002 | x3:00000003 | x4:00000004 | x5:00000005 | x6:00000006 | x7:00000007 | x8:00000008 | x9:00000009 | x10:0000000a | x11:0000000b | x12:0000000c | x13:0000000d | x14:0000000e | x15:0000000f |
Time:0 | clk:0 | Register| x16:00000010 | x17:00000011 | x18:00000012 | x19:00000013 | x20:00000014 | x21:00000015 | x22:00000016 | x23:00000017 | x24:00000018 | x25:00000019 | x26:0000001a | x27:0000001b | x28:0000001c | x29:0000001d | x30:0000001e | x31:0000001f |

Time: 5000 | clk: 1| PC/4: 00000001 | instr: 12345137 | Op:37 | rs1:08 | rs2:03 | rd:02 | Funct3:101 | Funct7:0001001 |A:00000008 | B:12345000 | ALUout:12345000 | addr:00 | din:00000003 | dout:00000000 |
Time:5000 | clk:1 | Control | RegWrite:1 | WDSel:11 | ALUop:00001 | ASel:0 | BSel:1 | DMType:000 | MemWrite:0 | WDSel:11 | 
Time:5000 | clk:1 | DMem | DM[0]:00 | DM[1]:00 | DM[2]:00 | DM[3]:00 | DM[4]:00 | DM[5]:00 | DM[6]:00 | DM[7]:00 | DM[8]:00 | DM[9]:00 | DM[10]:00 | DM[11]:00 | DM[12]:00 | DM[13]:00 | DM[14]:00 | DM[15]:00 |
Time:5000 | clk:1 | DMem | DM[16]:00 | DM[17]:00 | DM[18]:00 | DM[19]:00 | DM[20]:00 | DM[21]:00 | DM[22]:00 | DM[23]:00 | DM[24]:00 | DM[25]:00 | DM[26]:00 | DM[27]:00 | DM[28]:00 | DM[29]:00 | DM[30]:00 | DM[31]:00 |
Time:5000 | clk:1 | Register| x0:00000000 | x1:00000000 | x2:00000002 | x3:00000003 | x4:00000004 | x5:00000005 | x6:00000006 | x7:00000007 | x8:00000008 | x9:00000009 | x10:0000000a | x11:0000000b | x12:0000000c | x13:0000000d | x14:0000000e | x15:0000000f |
Time:5000 | clk:1 | Register| x16:00000010 | x17:00000011 | x18:00000012 | x19:00000013 | x20:00000014 | x21:00000015 | x22:00000016 | x23:00000017 | x24:00000018 | x25:00000019 | x26:0000001a | x27:0000001b | x28:0000001c | x29:0000001d | x30:0000001e | x31:0000001f |

Time: 10000 | clk: 0| PC/4: 00000001 | instr: 12345137 | Op:37 | rs1:08 | rs2:03 | rd:02 | Funct3:101 | Funct7:0001001 |A:00000008 | B:12345000 | ALUout:12345000 | addr:00 | din:00000003 | dout:00000000 |
Time:10000 | clk:0 | Control | RegWrite:1 | WDSel:11 | ALUop:00001 | ASel:0 | BSel:1 | DMType:000 | MemWrite:0 | WDSel:11 | 
Time:10000 | clk:0 | DMem | DM[0]:00 | DM[1]:00 | DM[2]:00 | DM[3]:00 | DM[4]:00 | DM[5]:00 | DM[6]:00 | DM[7]:00 | DM[8]:00 | DM[9]:00 | DM[10]:00 | DM[11]:00 | DM[12]:00 | DM[13]:00 | DM[14]:00 | DM[15]:00 |
Time:10000 | clk:0 | DMem | DM[16]:00 | DM[17]:00 | DM[18]:00 | DM[19]:00 | DM[20]:00 | DM[21]:00 | DM[22]:00 | DM[23]:00 | DM[24]:00 | DM[25]:00 | DM[26]:00 | DM[27]:00 | DM[28]:00 | DM[29]:00 | DM[30]:00 | DM[31]:00 |
Time:10000 | clk:0 | Register| x0:00000000 | x1:00000000 | x2:00000002 | x3:00000003 | x4:00000004 | x5:00000005 | x6:00000006 | x7:00000007 | x8:00000008 | x9:00000009 | x10:0000000a | x11:0000000b | x12:0000000c | x13:0000000d | x14:0000000e | x15:0000000f |
Time:10000 | clk:0 | Register| x16:00000010 | x17:00000011 | x18:00000012 | x19:00000013 | x20:00000014 | x21:00000015 | x22:00000016 | x23:00000017 | x24:00000018 | x25:00000019 | x26:0000001a | x27:0000001b | x28:0000001c | x29:0000001d | x30:0000001e | x31:0000001f |

Time: 15000 | clk: 1| PC/4: 00000002 | instr: 67810113 | Op:13 | rs1:02 | rs2:18 | rd:02 | Funct3:000 | Funct7:0110011 |A:12345000 | B:00000678 | ALUout:12345678 | addr:38 | din:00000018 | dout:00000000 |
Time:15000 | clk:1 | Control | RegWrite:1 | WDSel:00 | ALUop:00011 | ASel:0 | BSel:1 | DMType:000 | MemWrite:0 | WDSel:00 | 
Time:15000 | clk:1 | DMem | DM[0]:00 | DM[1]:00 | DM[2]:00 | DM[3]:00 | DM[4]:00 | DM[5]:00 | DM[6]:00 | DM[7]:00 | DM[8]:00 | DM[9]:00 | DM[10]:00 | DM[11]:00 | DM[12]:00 | DM[13]:00 | DM[14]:00 | DM[15]:00 |
Time:15000 | clk:1 | DMem | DM[16]:00 | DM[17]:00 | DM[18]:00 | DM[19]:00 | DM[20]:00 | DM[21]:00 | DM[22]:00 | DM[23]:00 | DM[24]:00 | DM[25]:00 | DM[26]:00 | DM[27]:00 | DM[28]:00 | DM[29]:00 | DM[30]:00 | DM[31]:00 |
Time:15000 | clk:1 | Register| x0:00000000 | x1:00000000 | x2:12345000 | x3:00000003 | x4:00000004 | x5:00000005 | x6:00000006 | x7:00000007 | x8:00000008 | x9:00000009 | x10:0000000a | x11:0000000b | x12:0000000c | x13:0000000d | x14:0000000e | x15:0000000f |
Time:15000 | clk:1 | Register| x16:00000010 | x17:00000011 | x18:00000012 | x19:00000013 | x20:00000014 | x21:00000015 | x22:00000016 | x23:00000017 | x24:00000018 | x25:00000019 | x26:0000001a | x27:0000001b | x28:0000001c | x29:0000001d | x30:0000001e | x31:0000001f |

Time: 20000 | clk: 0| PC/4: 00000002 | instr: 67810113 | Op:13 | rs1:02 | rs2:18 | rd:02 | Funct3:000 | Funct7:0110011 |A:12345000 | B:00000678 | ALUout:12345678 | addr:38 | din:00000018 | dout:00000000 |
Time:20000 | clk:0 | Control | RegWrite:1 | WDSel:00 | ALUop:00011 | ASel:0 | BSel:1 | DMType:000 | MemWrite:0 | WDSel:00 | 
Time:20000 | clk:0 | DMem | DM[0]:00 | DM[1]:00 | DM[2]:00 | DM[3]:00 | DM[4]:00 | DM[5]:00 | DM[6]:00 | DM[7]:00 | DM[8]:00 | DM[9]:00 | DM[10]:00 | DM[11]:00 | DM[12]:00 | DM[13]:00 | DM[14]:00 | DM[15]:00 |
Time:20000 | clk:0 | DMem | DM[16]:00 | DM[17]:00 | DM[18]:00 | DM[19]:00 | DM[20]:00 | DM[21]:00 | DM[22]:00 | DM[23]:00 | DM[24]:00 | DM[25]:00 | DM[26]:00 | DM[27]:00 | DM[28]:00 | DM[29]:00 | DM[30]:00 | DM[31]:00 |
Time:20000 | clk:0 | Register| x0:00000000 | x1:00000000 | x2:12345000 | x3:00000003 | x4:00000004 | x5:00000005 | x6:00000006 | x7:00000007 | x8:00000008 | x9:00000009 | x10:0000000a | x11:0000000b | x12:0000000c | x13:0000000d | x14:0000000e | x15:0000000f |
Time:20000 | clk:0 | Register| x16:00000010 | x17:00000011 | x18:00000012 | x19:00000013 | x20:00000014 | x21:00000015 | x22:00000016 | x23:00000017 | x24:00000018 | x25:00000019 | x26:0000001a | x27:0000001b | x28:0000001c | x29:0000001d | x30:0000001e | x31:0000001f |

Time: 25000 | clk: 1| PC/4: 00000003 | instr: 00208023 | Op:23 | rs1:01 | rs2:02 | rd:00 | Funct3:000 | Funct7:0000000 |A:00000000 | B:00000000 | ALUout:00000000 | addr:00 | din:12345678 | dout:00000000 |
Time:25000 | clk:1 | Control | RegWrite:0 | WDSel:00 | ALUop:00011 | ASel:0 | BSel:1 | DMType:011 | MemWrite:1 | WDSel:00 | 
Time:25000 | clk:1 | DMem | DM[0]:00 | DM[1]:00 | DM[2]:00 | DM[3]:00 | DM[4]:00 | DM[5]:00 | DM[6]:00 | DM[7]:00 | DM[8]:00 | DM[9]:00 | DM[10]:00 | DM[11]:00 | DM[12]:00 | DM[13]:00 | DM[14]:00 | DM[15]:00 |
Time:25000 | clk:1 | DMem | DM[16]:00 | DM[17]:00 | DM[18]:00 | DM[19]:00 | DM[20]:00 | DM[21]:00 | DM[22]:00 | DM[23]:00 | DM[24]:00 | DM[25]:00 | DM[26]:00 | DM[27]:00 | DM[28]:00 | DM[29]:00 | DM[30]:00 | DM[31]:00 |
Time:25000 | clk:1 | Register| x0:00000000 | x1:00000000 | x2:12345678 | x3:00000003 | x4:00000004 | x5:00000005 | x6:00000006 | x7:00000007 | x8:00000008 | x9:00000009 | x10:0000000a | x11:0000000b | x12:0000000c | x13:0000000d | x14:0000000e | x15:0000000f |
Time:25000 | clk:1 | Register| x16:00000010 | x17:00000011 | x18:00000012 | x19:00000013 | x20:00000014 | x21:00000015 | x22:00000016 | x23:00000017 | x24:00000018 | x25:00000019 | x26:0000001a | x27:0000001b | x28:0000001c | x29:0000001d | x30:0000001e | x31:0000001f |

Time: 30000 | clk: 0| PC/4: 00000003 | instr: 00208023 | Op:23 | rs1:01 | rs2:02 | rd:00 | Funct3:000 | Funct7:0000000 |A:00000000 | B:00000000 | ALUout:00000000 | addr:00 | din:12345678 | dout:00000000 |
Time:30000 | clk:0 | Control | RegWrite:0 | WDSel:00 | ALUop:00011 | ASel:0 | BSel:1 | DMType:011 | MemWrite:1 | WDSel:00 | 
Time:30000 | clk:0 | DMem | DM[0]:00 | DM[1]:00 | DM[2]:00 | DM[3]:00 | DM[4]:00 | DM[5]:00 | DM[6]:00 | DM[7]:00 | DM[8]:00 | DM[9]:00 | DM[10]:00 | DM[11]:00 | DM[12]:00 | DM[13]:00 | DM[14]:00 | DM[15]:00 |
Time:30000 | clk:0 | DMem | DM[16]:00 | DM[17]:00 | DM[18]:00 | DM[19]:00 | DM[20]:00 | DM[21]:00 | DM[22]:00 | DM[23]:00 | DM[24]:00 | DM[25]:00 | DM[26]:00 | DM[27]:00 | DM[28]:00 | DM[29]:00 | DM[30]:00 | DM[31]:00 |
Time:30000 | clk:0 | Register| x0:00000000 | x1:00000000 | x2:12345678 | x3:00000003 | x4:00000004 | x5:00000005 | x6:00000006 | x7:00000007 | x8:00000008 | x9:00000009 | x10:0000000a | x11:0000000b | x12:0000000c | x13:0000000d | x14:0000000e | x15:0000000f |
Time:30000 | clk:0 | Register| x16:00000010 | x17:00000011 | x18:00000012 | x19:00000013 | x20:00000014 | x21:00000015 | x22:00000016 | x23:00000017 | x24:00000018 | x25:00000019 | x26:0000001a | x27:0000001b | x28:0000001c | x29:0000001d | x30:0000001e | x31:0000001f |

Time: 35000 | clk: 1| PC/4: 00000004 | instr: 00209223 | Op:23 | rs1:01 | rs2:02 | rd:04 | Funct3:001 | Funct7:0000000 |A:00000000 | B:00000004 | ALUout:00000004 | addr:04 | din:12345678 | dout:00000000 |
Time:35000 | clk:1 | Control | RegWrite:0 | WDSel:00 | ALUop:00011 | ASel:0 | BSel:1 | DMType:001 | MemWrite:1 | WDSel:00 | 
Time:35000 | clk:1 | DMem | DM[0]:78 | DM[1]:00 | DM[2]:00 | DM[3]:00 | DM[4]:00 | DM[5]:00 | DM[6]:00 | DM[7]:00 | DM[8]:00 | DM[9]:00 | DM[10]:00 | DM[11]:00 | DM[12]:00 | DM[13]:00 | DM[14]:00 | DM[15]:00 |
Time:35000 | clk:1 | DMem | DM[16]:00 | DM[17]:00 | DM[18]:00 | DM[19]:00 | DM[20]:00 | DM[21]:00 | DM[22]:00 | DM[23]:00 | DM[24]:00 | DM[25]:00 | DM[26]:00 | DM[27]:00 | DM[28]:00 | DM[29]:00 | DM[30]:00 | DM[31]:00 |
Time:35000 | clk:1 | Register| x0:00000000 | x1:00000000 | x2:12345678 | x3:00000003 | x4:00000004 | x5:00000005 | x6:00000006 | x7:00000007 | x8:00000008 | x9:00000009 | x10:0000000a | x11:0000000b | x12:0000000c | x13:0000000d | x14:0000000e | x15:0000000f |
Time:35000 | clk:1 | Register| x16:00000010 | x17:00000011 | x18:00000012 | x19:00000013 | x20:00000014 | x21:00000015 | x22:00000016 | x23:00000017 | x24:00000018 | x25:00000019 | x26:0000001a | x27:0000001b | x28:0000001c | x29:0000001d | x30:0000001e | x31:0000001f |

Time: 40000 | clk: 0| PC/4: 00000004 | instr: 00209223 | Op:23 | rs1:01 | rs2:02 | rd:04 | Funct3:001 | Funct7:0000000 |A:00000000 | B:00000004 | ALUout:00000004 | addr:04 | din:12345678 | dout:00000000 |
Time:40000 | clk:0 | Control | RegWrite:0 | WDSel:00 | ALUop:00011 | ASel:0 | BSel:1 | DMType:001 | MemWrite:1 | WDSel:00 | 
Time:40000 | clk:0 | DMem | DM[0]:78 | DM[1]:00 | DM[2]:00 | DM[3]:00 | DM[4]:00 | DM[5]:00 | DM[6]:00 | DM[7]:00 | DM[8]:00 | DM[9]:00 | DM[10]:00 | DM[11]:00 | DM[12]:00 | DM[13]:00 | DM[14]:00 | DM[15]:00 |
Time:40000 | clk:0 | DMem | DM[16]:00 | DM[17]:00 | DM[18]:00 | DM[19]:00 | DM[20]:00 | DM[21]:00 | DM[22]:00 | DM[23]:00 | DM[24]:00 | DM[25]:00 | DM[26]:00 | DM[27]:00 | DM[28]:00 | DM[29]:00 | DM[30]:00 | DM[31]:00 |
Time:40000 | clk:0 | Register| x0:00000000 | x1:00000000 | x2:12345678 | x3:00000003 | x4:00000004 | x5:00000005 | x6:00000006 | x7:00000007 | x8:00000008 | x9:00000009 | x10:0000000a | x11:0000000b | x12:0000000c | x13:0000000d | x14:0000000e | x15:0000000f |
Time:40000 | clk:0 | Register| x16:00000010 | x17:00000011 | x18:00000012 | x19:00000013 | x20:00000014 | x21:00000015 | x22:00000016 | x23:00000017 | x24:00000018 | x25:00000019 | x26:0000001a | x27:0000001b | x28:0000001c | x29:0000001d | x30:0000001e | x31:0000001f |

Time: 45000 | clk: 1| PC/4: 00000005 | instr: 0020a423 | Op:23 | rs1:01 | rs2:02 | rd:08 | Funct3:010 | Funct7:0000000 |A:00000000 | B:00000008 | ALUout:00000008 | addr:08 | din:12345678 | dout:00000000 |
Time:45000 | clk:1 | Control | RegWrite:0 | WDSel:00 | ALUop:00011 | ASel:0 | BSel:1 | DMType:000 | MemWrite:1 | WDSel:00 | 
Time:45000 | clk:1 | DMem | DM[0]:78 | DM[1]:00 | DM[2]:00 | DM[3]:00 | DM[4]:78 | DM[5]:56 | DM[6]:00 | DM[7]:00 | DM[8]:00 | DM[9]:00 | DM[10]:00 | DM[11]:00 | DM[12]:00 | DM[13]:00 | DM[14]:00 | DM[15]:00 |
Time:45000 | clk:1 | DMem | DM[16]:00 | DM[17]:00 | DM[18]:00 | DM[19]:00 | DM[20]:00 | DM[21]:00 | DM[22]:00 | DM[23]:00 | DM[24]:00 | DM[25]:00 | DM[26]:00 | DM[27]:00 | DM[28]:00 | DM[29]:00 | DM[30]:00 | DM[31]:00 |
Time:45000 | clk:1 | Register| x0:00000000 | x1:00000000 | x2:12345678 | x3:00000003 | x4:00000004 | x5:00000005 | x6:00000006 | x7:00000007 | x8:00000008 | x9:00000009 | x10:0000000a | x11:0000000b | x12:0000000c | x13:0000000d | x14:0000000e | x15:0000000f |
Time:45000 | clk:1 | Register| x16:00000010 | x17:00000011 | x18:00000012 | x19:00000013 | x20:00000014 | x21:00000015 | x22:00000016 | x23:00000017 | x24:00000018 | x25:00000019 | x26:0000001a | x27:0000001b | x28:0000001c | x29:0000001d | x30:0000001e | x31:0000001f |

Time: 50000 | clk: 0| PC/4: 00000005 | instr: 0020a423 | Op:23 | rs1:01 | rs2:02 | rd:08 | Funct3:010 | Funct7:0000000 |A:00000000 | B:00000008 | ALUout:00000008 | addr:08 | din:12345678 | dout:00000000 |
Time:50000 | clk:0 | Control | RegWrite:0 | WDSel:00 | ALUop:00011 | ASel:0 | BSel:1 | DMType:000 | MemWrite:1 | WDSel:00 | 
Time:50000 | clk:0 | DMem | DM[0]:78 | DM[1]:00 | DM[2]:00 | DM[3]:00 | DM[4]:78 | DM[5]:56 | DM[6]:00 | DM[7]:00 | DM[8]:00 | DM[9]:00 | DM[10]:00 | DM[11]:00 | DM[12]:00 | DM[13]:00 | DM[14]:00 | DM[15]:00 |
Time:50000 | clk:0 | DMem | DM[16]:00 | DM[17]:00 | DM[18]:00 | DM[19]:00 | DM[20]:00 | DM[21]:00 | DM[22]:00 | DM[23]:00 | DM[24]:00 | DM[25]:00 | DM[26]:00 | DM[27]:00 | DM[28]:00 | DM[29]:00 | DM[30]:00 | DM[31]:00 |
Time:50000 | clk:0 | Register| x0:00000000 | x1:00000000 | x2:12345678 | x3:00000003 | x4:00000004 | x5:00000005 | x6:00000006 | x7:00000007 | x8:00000008 | x9:00000009 | x10:0000000a | x11:0000000b | x12:0000000c | x13:0000000d | x14:0000000e | x15:0000000f |
Time:50000 | clk:0 | Register| x16:00000010 | x17:00000011 | x18:00000012 | x19:00000013 | x20:00000014 | x21:00000015 | x22:00000016 | x23:00000017 | x24:00000018 | x25:00000019 | x26:0000001a | x27:0000001b | x28:0000001c | x29:0000001d | x30:0000001e | x31:0000001f |

Time: 55000 | clk: 1| PC/4: 00000006 | instr: 00008183 | Op:03 | rs1:01 | rs2:00 | rd:03 | Funct3:000 | Funct7:0000000 |A:00000000 | B:00000000 | ALUout:00000000 | addr:00 | din:00000000 | dout:00000078 |
Time:55000 | clk:1 | Control | RegWrite:1 | WDSel:01 | ALUop:00011 | ASel:0 | BSel:1 | DMType:011 | MemWrite:0 | WDSel:01 | 
Time:55000 | clk:1 | DMem | DM[0]:78 | DM[1]:00 | DM[2]:00 | DM[3]:00 | DM[4]:78 | DM[5]:56 | DM[6]:00 | DM[7]:00 | DM[8]:78 | DM[9]:56 | DM[10]:34 | DM[11]:12 | DM[12]:00 | DM[13]:00 | DM[14]:00 | DM[15]:00 |
Time:55000 | clk:1 | DMem | DM[16]:00 | DM[17]:00 | DM[18]:00 | DM[19]:00 | DM[20]:00 | DM[21]:00 | DM[22]:00 | DM[23]:00 | DM[24]:00 | DM[25]:00 | DM[26]:00 | DM[27]:00 | DM[28]:00 | DM[29]:00 | DM[30]:00 | DM[31]:00 |
Time:55000 | clk:1 | Register| x0:00000000 | x1:00000000 | x2:12345678 | x3:00000003 | x4:00000004 | x5:00000005 | x6:00000006 | x7:00000007 | x8:00000008 | x9:00000009 | x10:0000000a | x11:0000000b | x12:0000000c | x13:0000000d | x14:0000000e | x15:0000000f |
Time:55000 | clk:1 | Register| x16:00000010 | x17:00000011 | x18:00000012 | x19:00000013 | x20:00000014 | x21:00000015 | x22:00000016 | x23:00000017 | x24:00000018 | x25:00000019 | x26:0000001a | x27:0000001b | x28:0000001c | x29:0000001d | x30:0000001e | x31:0000001f |

Time: 60000 | clk: 0| PC/4: 00000006 | instr: 00008183 | Op:03 | rs1:01 | rs2:00 | rd:03 | Funct3:000 | Funct7:0000000 |A:00000000 | B:00000000 | ALUout:00000000 | addr:00 | din:00000000 | dout:00000078 |
Time:60000 | clk:0 | Control | RegWrite:1 | WDSel:01 | ALUop:00011 | ASel:0 | BSel:1 | DMType:011 | MemWrite:0 | WDSel:01 | 
Time:60000 | clk:0 | DMem | DM[0]:78 | DM[1]:00 | DM[2]:00 | DM[3]:00 | DM[4]:78 | DM[5]:56 | DM[6]:00 | DM[7]:00 | DM[8]:78 | DM[9]:56 | DM[10]:34 | DM[11]:12 | DM[12]:00 | DM[13]:00 | DM[14]:00 | DM[15]:00 |
Time:60000 | clk:0 | DMem | DM[16]:00 | DM[17]:00 | DM[18]:00 | DM[19]:00 | DM[20]:00 | DM[21]:00 | DM[22]:00 | DM[23]:00 | DM[24]:00 | DM[25]:00 | DM[26]:00 | DM[27]:00 | DM[28]:00 | DM[29]:00 | DM[30]:00 | DM[31]:00 |
Time:60000 | clk:0 | Register| x0:00000000 | x1:00000000 | x2:12345678 | x3:00000003 | x4:00000004 | x5:00000005 | x6:00000006 | x7:00000007 | x8:00000008 | x9:00000009 | x10:0000000a | x11:0000000b | x12:0000000c | x13:0000000d | x14:0000000e | x15:0000000f |
Time:60000 | clk:0 | Register| x16:00000010 | x17:00000011 | x18:00000012 | x19:00000013 | x20:00000014 | x21:00000015 | x22:00000016 | x23:00000017 | x24:00000018 | x25:00000019 | x26:0000001a | x27:0000001b | x28:0000001c | x29:0000001d | x30:0000001e | x31:0000001f |

Time: 65000 | clk: 1| PC/4: 00000007 | instr: 00409203 | Op:03 | rs1:01 | rs2:04 | rd:04 | Funct3:001 | Funct7:0000000 |A:00000000 | B:00000004 | ALUout:00000004 | addr:04 | din:00000004 | dout:00005678 |
Time:65000 | clk:1 | Control | RegWrite:1 | WDSel:01 | ALUop:00011 | ASel:0 | BSel:1 | DMType:001 | MemWrite:0 | WDSel:01 | 
Time:65000 | clk:1 | DMem | DM[0]:78 | DM[1]:00 | DM[2]:00 | DM[3]:00 | DM[4]:78 | DM[5]:56 | DM[6]:00 | DM[7]:00 | DM[8]:78 | DM[9]:56 | DM[10]:34 | DM[11]:12 | DM[12]:00 | DM[13]:00 | DM[14]:00 | DM[15]:00 |
Time:65000 | clk:1 | DMem | DM[16]:00 | DM[17]:00 | DM[18]:00 | DM[19]:00 | DM[20]:00 | DM[21]:00 | DM[22]:00 | DM[23]:00 | DM[24]:00 | DM[25]:00 | DM[26]:00 | DM[27]:00 | DM[28]:00 | DM[29]:00 | DM[30]:00 | DM[31]:00 |
Time:65000 | clk:1 | Register| x0:00000000 | x1:00000000 | x2:12345678 | x3:00000078 | x4:00000004 | x5:00000005 | x6:00000006 | x7:00000007 | x8:00000008 | x9:00000009 | x10:0000000a | x11:0000000b | x12:0000000c | x13:0000000d | x14:0000000e | x15:0000000f |
Time:65000 | clk:1 | Register| x16:00000010 | x17:00000011 | x18:00000012 | x19:00000013 | x20:00000014 | x21:00000015 | x22:00000016 | x23:00000017 | x24:00000018 | x25:00000019 | x26:0000001a | x27:0000001b | x28:0000001c | x29:0000001d | x30:0000001e | x31:0000001f |

Time: 70000 | clk: 0| PC/4: 00000007 | instr: 00409203 | Op:03 | rs1:01 | rs2:04 | rd:04 | Funct3:001 | Funct7:0000000 |A:00000000 | B:00000004 | ALUout:00000004 | addr:04 | din:00000004 | dout:00005678 |
Time:70000 | clk:0 | Control | RegWrite:1 | WDSel:01 | ALUop:00011 | ASel:0 | BSel:1 | DMType:001 | MemWrite:0 | WDSel:01 | 
Time:70000 | clk:0 | DMem | DM[0]:78 | DM[1]:00 | DM[2]:00 | DM[3]:00 | DM[4]:78 | DM[5]:56 | DM[6]:00 | DM[7]:00 | DM[8]:78 | DM[9]:56 | DM[10]:34 | DM[11]:12 | DM[12]:00 | DM[13]:00 | DM[14]:00 | DM[15]:00 |
Time:70000 | clk:0 | DMem | DM[16]:00 | DM[17]:00 | DM[18]:00 | DM[19]:00 | DM[20]:00 | DM[21]:00 | DM[22]:00 | DM[23]:00 | DM[24]:00 | DM[25]:00 | DM[26]:00 | DM[27]:00 | DM[28]:00 | DM[29]:00 | DM[30]:00 | DM[31]:00 |
Time:70000 | clk:0 | Register| x0:00000000 | x1:00000000 | x2:12345678 | x3:00000078 | x4:00000004 | x5:00000005 | x6:00000006 | x7:00000007 | x8:00000008 | x9:00000009 | x10:0000000a | x11:0000000b | x12:0000000c | x13:0000000d | x14:0000000e | x15:0000000f |
Time:70000 | clk:0 | Register| x16:00000010 | x17:00000011 | x18:00000012 | x19:00000013 | x20:00000014 | x21:00000015 | x22:00000016 | x23:00000017 | x24:00000018 | x25:00000019 | x26:0000001a | x27:0000001b | x28:0000001c | x29:0000001d | x30:0000001e | x31:0000001f |

Time: 75000 | clk: 1| PC/4: 00000008 | instr: 0080a283 | Op:03 | rs1:01 | rs2:08 | rd:05 | Funct3:010 | Funct7:0000000 |A:00000000 | B:00000008 | ALUout:00000008 | addr:08 | din:00000008 | dout:12345678 |
Time:75000 | clk:1 | Control | RegWrite:1 | WDSel:01 | ALUop:00011 | ASel:0 | BSel:1 | DMType:000 | MemWrite:0 | WDSel:01 | 
Time:75000 | clk:1 | DMem | DM[0]:78 | DM[1]:00 | DM[2]:00 | DM[3]:00 | DM[4]:78 | DM[5]:56 | DM[6]:00 | DM[7]:00 | DM[8]:78 | DM[9]:56 | DM[10]:34 | DM[11]:12 | DM[12]:00 | DM[13]:00 | DM[14]:00 | DM[15]:00 |
Time:75000 | clk:1 | DMem | DM[16]:00 | DM[17]:00 | DM[18]:00 | DM[19]:00 | DM[20]:00 | DM[21]:00 | DM[22]:00 | DM[23]:00 | DM[24]:00 | DM[25]:00 | DM[26]:00 | DM[27]:00 | DM[28]:00 | DM[29]:00 | DM[30]:00 | DM[31]:00 |
Time:75000 | clk:1 | Register| x0:00000000 | x1:00000000 | x2:12345678 | x3:00000078 | x4:00005678 | x5:00000005 | x6:00000006 | x7:00000007 | x8:00000008 | x9:00000009 | x10:0000000a | x11:0000000b | x12:0000000c | x13:0000000d | x14:0000000e | x15:0000000f |
Time:75000 | clk:1 | Register| x16:00000010 | x17:00000011 | x18:00000012 | x19:00000013 | x20:00000014 | x21:00000015 | x22:00000016 | x23:00000017 | x24:00000018 | x25:00000019 | x26:0000001a | x27:0000001b | x28:0000001c | x29:0000001d | x30:0000001e | x31:0000001f |

Time: 80000 | clk: 0| PC/4: 00000008 | instr: 0080a283 | Op:03 | rs1:01 | rs2:08 | rd:05 | Funct3:010 | Funct7:0000000 |A:00000000 | B:00000008 | ALUout:00000008 | addr:08 | din:00000008 | dout:12345678 |
Time:80000 | clk:0 | Control | RegWrite:1 | WDSel:01 | ALUop:00011 | ASel:0 | BSel:1 | DMType:000 | MemWrite:0 | WDSel:01 | 
Time:80000 | clk:0 | DMem | DM[0]:78 | DM[1]:00 | DM[2]:00 | DM[3]:00 | DM[4]:78 | DM[5]:56 | DM[6]:00 | DM[7]:00 | DM[8]:78 | DM[9]:56 | DM[10]:34 | DM[11]:12 | DM[12]:00 | DM[13]:00 | DM[14]:00 | DM[15]:00 |
Time:80000 | clk:0 | DMem | DM[16]:00 | DM[17]:00 | DM[18]:00 | DM[19]:00 | DM[20]:00 | DM[21]:00 | DM[22]:00 | DM[23]:00 | DM[24]:00 | DM[25]:00 | DM[26]:00 | DM[27]:00 | DM[28]:00 | DM[29]:00 | DM[30]:00 | DM[31]:00 |
Time:80000 | clk:0 | Register| x0:00000000 | x1:00000000 | x2:12345678 | x3:00000078 | x4:00005678 | x5:00000005 | x6:00000006 | x7:00000007 | x8:00000008 | x9:00000009 | x10:0000000a | x11:0000000b | x12:0000000c | x13:0000000d | x14:0000000e | x15:0000000f |
Time:80000 | clk:0 | Register| x16:00000010 | x17:00000011 | x18:00000012 | x19:00000013 | x20:00000014 | x21:00000015 | x22:00000016 | x23:00000017 | x24:00000018 | x25:00000019 | x26:0000001a | x27:0000001b | x28:0000001c | x29:0000001d | x30:0000001e | x31:0000001f |

Time: 85000 | clk: 1| PC/4: 00000009 | instr: 00000000 | Op:00 | rs1:00 | rs2:00 | rd:00 | Funct3:000 | Funct7:0000000 |A:00000000 | B:00000000 | ALUout:00000000 | addr:00 | din:00000000 | dout:00000078 |
Time:85000 | clk:1 | Control | RegWrite:0 | WDSel:00 | ALUop:00000 | ASel:0 | BSel:1 | DMType:000 | MemWrite:0 | WDSel:00 | 
Time:85000 | clk:1 | DMem | DM[0]:78 | DM[1]:00 | DM[2]:00 | DM[3]:00 | DM[4]:78 | DM[5]:56 | DM[6]:00 | DM[7]:00 | DM[8]:78 | DM[9]:56 | DM[10]:34 | DM[11]:12 | DM[12]:00 | DM[13]:00 | DM[14]:00 | DM[15]:00 |
Time:85000 | clk:1 | DMem | DM[16]:00 | DM[17]:00 | DM[18]:00 | DM[19]:00 | DM[20]:00 | DM[21]:00 | DM[22]:00 | DM[23]:00 | DM[24]:00 | DM[25]:00 | DM[26]:00 | DM[27]:00 | DM[28]:00 | DM[29]:00 | DM[30]:00 | DM[31]:00 |
Time:85000 | clk:1 | Register| x0:00000000 | x1:00000000 | x2:12345678 | x3:00000078 | x4:00005678 | x5:12345678 | x6:00000006 | x7:00000007 | x8:00000008 | x9:00000009 | x10:0000000a | x11:0000000b | x12:0000000c | x13:0000000d | x14:0000000e | x15:0000000f |
Time:85000 | clk:1 | Register| x16:00000010 | x17:00000011 | x18:00000012 | x19:00000013 | x20:00000014 | x21:00000015 | x22:00000016 | x23:00000017 | x24:00000018 | x25:00000019 | x26:0000001a | x27:0000001b | x28:0000001c | x29:0000001d | x30:0000001e | x31:0000001f |

